{
  "project_info": {
    "project_number": "1069025419864",
    "project_id": "sample-rn-project-1",
    "storage_bucket": "sample-rn-project-1.appspot.com"
  },
  "client": [
    {
      "client_info": {
        "mobilesdk_app_id": "1:1069025419864:android:a63755b61660b424b0202d",
        "android_client_info": {
          "package_name": "com.sampletrainingproject"
        }
      },
      "oauth_client": [
        {
          "client_id": "1069025419864-hgak97ile1okmh05he6ov4d57pc511h0.apps.googleusercontent.com",
          "client_type": 3
        }
      ],
      "api_key": [
        {
          "current_key": "AIzaSyDdIFkdsTQdp7JNU8ix8LyP4NHCeXBPNeU"
        }
      ],
      "services": {
        "appinvite_service": {
          "other_platform_oauth_client": [
            {
              "client_id": "1069025419864-hgak97ile1okmh05he6ov4d57pc511h0.apps.googleusercontent.com",
              "client_type": 3
            }
          ]
        }
      }
    }
  ],
  "configuration_version": "1"
}